bE Results

 

CalculationResultEditor [ Plot [ Parallel plot

CRISTAL_V2.0.3_AP2M5

var.h_u (real) | var.m_u (res) | var.c_sphere (...| var.c_u (real) KEFF COMBI. GENERALE ECART TYPE KEFF+3’
1 28000.0 9.814057921... |7071.6953 16... 0.22123 0.00100 0.22423

| 5] 28000.0  |12.51398657...|3411.021447... 0.00100

| 3 | 7 | 28000.0  |13.51191382...|2709.685090... 0.60686 0.00100 0.60986

+ [10 | 200000 |1a:77e5s101..,z07as7oz02..| _oeesea_~+|_eaowo =SC~dCSC*CιCVC=C~*~*d
Ts [12 | 220000 |1s.s1s027e0.,|resraso7e..| __o.7asso_|_eaowo ~+i_~S~traes Cid
7 [20 | 280000 }1792058820..|1159.740690..| __oaaeso~+|eaowoSC~dCSC=C;~*ιRIO:*=SCSC*~*~*~*
Te | 25 | 220000 }19.1se2eere...|os0.ccos72s..|___oasoo | eaowo =S«dSC~~*~tRSCSC*~*~**
Ts [20 | 280000 [20.24082501..leosa7a71as..| __ogowa | oaowo =«dSC~**ιSCSCSC*
0 |_|

28000.0 22.12868801... |616.8824637... 0.86589 0.00100 0.86889