CalculationResultEditor [ Plot [ Parallel plot
CRISTAL_V2.0.3_AP2M5 Export C SV output

var.m_u (real) | var.r_sphere(... var.c_u (real KEFF COMBI. GENERALE ECART TYPE KEFF+320
ee
[2s _] 2000.0 rzsiaseesr...aert.cziee7..[ _osaora_-[ anno SCS~sdtC*~*~*~tRN:~SSCSCSC~*d
[3] 7] 2000.0 |as11s1ae2...27oa.cesos0..[ _oeoess | ooo ~it~SC~st C=

| 4 | 10 | 280000 _[14.77855101...|2070.970232... 0.69462 0.00100 0.69762

[eo [18 | 280000 froxsossast7...rse0eeezoe..[ __ovaooz_-[ eoowo <[ ~iorama
[7 [20 | 280000 |rr-szesssz0...1ve0.740608..| __oeaea_-[ __ooowo =s<«[ =S=S~t
e | 25 | 280000 fro.ssezsete..losocoesr2s..[ __oesoz0_-[ _eoowo ~<[ essaz SS
[2 [20 | 280000 [zo.2ece2s0r..ls0saza7ves..[ __osees_-[ _coowo =s«[ ~=~=~*~t ne
[100] 280000 _[pa.r2seesor..loresszaear..| osess9~+~~S~tmoooS~S~idCSC*~*~*~stSSCSCSC~*d

| 5 | 12 | _28000.0 _[15.51532768...|1789.72’078... 0.73556 0.00100 0.73856