RISTAL_V2.0)_AP7IS

LJ weed we ae eed wee enn, | wacom WEIS COnde CELE | CAAT PE | WEST - de
‘ ' 20088 S NNR TET! «167! Gee Fe @ d217F9 00000 @ rer =
2 6 | 30008 6 “2 61 s0em87 “pers erree? | Om 16 | 00000 | O Bree
3 ? | 30008 6 “36 Ol mes "3700 eosene | me | 00000 | ¢mme
a ” | 30008 6 “Me TOS »O! “were prernz | oem? | 00000 | cmwrm
6 2 | 30008 6 “Ve sreazree “00 rare | ¢ 13000 | 00000 | 01a
@ % | 30008 6 “ve seeces17 ee 906.208 | @ reee2 | 00000 | @ rez
? » | 30008 6 "17 sgeseeze "1190 reoee | osm | 00000 | oar
é s | 30008 6 “ve \enaeeie ‘ese sees? >< | Conn | 00000 | oon
® » | 30008 6 '~ 2008 3001 ‘eon. srer1es | @oeres | 00000 | 0 eats
” « | 30000 6 "x2 1200000: ‘eve s030037 | 0 ome | 00000 | ome