Lt Retems oc ©

ens
Ger —— Pet | Poromet pact | Vermcasce |

RISTAL_V2.0.9_APTuS

 

  

⋅⋅∙∙⋅∙ ⋅≖∥∞⋯⋯⋯⋯
⋯⊶∙⊶∙∙⊶⋮⊷⋅ ⇆⇆

%

| secee _frocmsse frsorene | ease «dt nee id
| _secee favtsseone jwwecere | _ eam «dtm id
| reese fro aecnasen fponaveres | _oaeus Sid Ste id
<o__ | s00ewe Jaa vaesoes fovesazes? | ewes ——S=S=~=~id:C<“<‘CS*C~Cé ~*d

 

Slolo|sleole] a] wlan] =