ee ~ ale alw ni=-

   

 

UZ Results

| v | ¥y resus

CalculatonResultt ditor | Plot | Paraliel plot | Verification _
RISTAL_V2.0.3_AP2MS
] var hv ead | var mv (ead | vart_sphere ( |_va <u (rea ]

1
5

8/8 RB Bialsis|~

9814057921
"12 61390087
“13.51191382
‘M4 77855101
“ie sieaz760
te §0444517
"17 92958820
"19 18820018
"20 26083801
[22 12868801

7071 695816.
“aatt 021447
“xre9 685090
"2070 970232
11799 720078
11480 848209
if 189 740636.
‘980 6005724
‘eos 3747145
lore 8824637

KEFF COM! GENERALE

022123
0 S2014
0 ecese
© 69462
0 73556
© 78002
0 82640
© 85020
0 86183
0 86589

ECART TYPE
0 00100
0 00100
0 00100
0 00100
0 00100
0 00100
0 00100
0 00100
0 00100
0 00100

 

 
      

© 52314
0 eosee
0 69762
0 73856
© 78302
0 8294
08532
0 86483
© 86889