RISTAL_V2.0.3_AP2i65

      

Nn wer hu pest ver mu heed ver s_spneve we cu pest. KEFF COMB GENERALE ECART TYPE

1 1 "290000 9814087921 7071 e98810 | 0.22123 | 0 00100 | 0 22423
20 6 790000 "1261380087 "3411 021007 | 052014 1 0.00100 | oa7316
3° Oo? *ge0000 "13.61191382 270988080 0 eoeee | 0 00100 | 0 eosee
«7° 40 ~ samo 0 114. 77886101 2070 970722 | 0 epeez | 0 00100 | 0 ea7e2
6 12 | 290000 16861622700 "1789 720078 | 0 73886 | 0 00100 | 0 73080
© | «= 18 snwm00)16. 90400817 1498 848209 0 79002 | 0 00100 | 0 78302
nr) "70000 "17 92908620 "1100 7a0000 | 0 82000 | 0 00100 | oar
eo | 2 | 290000 "1916820018 s00 088724 0 83020 | 0 00100 | 00332
® ~ 3% | 200000 "20 20083601 908 3747148 | 090189 1 0 00100 | 0 90402
1 | | zponn.o "zz 12008801 eresszee7 | 0 eeses | 0 00100 | 0 ecese